Analyse de semis de points sur un réseau spatial avec R
…
   list_simulated_dist[[i]] <- dist_pi_p   
}

# création d'un unique tableau et non d'une liste de tableaux
table_simulated_dist <- do.call(what = "rbind", args = list_simulated_dist)
table_simulated_dist

# A tibble: 1,159,400 × 5
      Pi P     dist_pi_p type       n_sim
   <int> <chr>     <dbl> <chr>      <int>
 1     2 1         1482. simulation     1
 2     3 1         7030. simulation     1
 3     3 2         5579. simulation     1
 4     4 1         1931. simulation     1
 5     4 2          857. simulation     1
 6     4 3         5247. simulation     1
 7     5 1         5559. simulation     1
 8     5 2         4108. simulation     1
 9     5 3         4259. simulation     1
10     5 4         4143. simulation     1
# ℹ 1,159,390 more rows
…
